Youtube Data
…
Summary of the data

data %>% nrow()  # 955 youtubers

## [1] 995

data %>% 
  select(Country) %>% unique() %>% arrange(Country)

## # A tibble: 50 x 1
##    Country    
##    <chr>      
##  1 Afghanistan
##  2 Andorra    
##  3 Argentina  
##  4 Australia  
##  5 Bangladesh 
##  6 Barbados   
##  7 Brazil     
##  8 Canada     
##  9 Chile      
## 10 China      
## #  with 40 more rows
…
